{
  "users": [
    {
      "id": "23",
      "firstName": "Bill",
      "age": 20,
      "companyId": "1"
    },
    {
      "id": "40",
      "firstName": "Gerry",
      "age": 10,
      "companyId": "2"
    },
    {
      "id": "41",
      "firstName": "Nick",
      "age": 40,
      "companyId": "2"
    }
  ],
  "companies": [
    {
      "id": "1",
      "name": "Apple",
      "description": "iphone"
    },
    {
      "id": "2",
      "name": "Google",
      "description": "search"
    }
  ]
}